Multiverse analyses and specification curves for conditioning data • multifear
…
estimate: The estimate that is returned from the test. Keep in mind though that this applies only for the t-test at the moment. We need to see what we can do for the ANOVA,

statistic. The statistic of the test

conf.low and conf.high In case you have an estimate, this returns the low and high levels of it

framework were the data analysed within a NHST or Bayesian framework?

data_used Here you have a data frame with the data used for the performed analyses. This is because someone maybe wants to recreate the results and also as a check that nothing went wrong.

So now let’s see how you can run the same analyses but after we apply some selection criteria for non-learns. So, here it is

res_multi <- multifear::multiverse_cs(cs1 = cs1, cs2 = cs2, data = example_data, subj = "id", group = NULL, phase = "acquisition", include_bayes = TRUE)
res_multi
#> # A tibble: 150 x 16
#>    x     y     exclusion model controls method  p.value effect.size estimate
#>    <chr> <chr> <chr>     <chr> <lgl>    <chr>     <dbl>       <dbl>    <dbl>
#>  1 cs    scr   full_data t-te… NA       t-test  0.00244      0.577   1.17e+0
#>  2 cs    scr   full_data t-te… NA       t-test  0.00488      0.577   1.17e+0
#>  3 cs    scr   full_data Baye… NA       t-test NA           NA       2.57e+0
#>  4 cs    scr   full_data Baye… NA       t-test NA           NA       1.71e-1
#>  5 cs:t… scr   full_data rep … NA       rep A…  0.0152       0.0307 NA      
#>  6 cs    scr   full_data rep … NA       rep A…  0.00488      0.157  NA      
#>  7 cs:t… scr   full_data rep … NA       rep B… NA           NA       1.59e+0
#>  8 cs:t… scr   full_data rep … NA       rep B… NA           NA       3.81e-1
#>  9 cs    scr   full_data rep … NA       rep B… NA           NA       5.86e+4
#> 10 cs    scr   full_data rep … NA       rep B… NA           NA       5.86e+4
#> # … with 140 more rows, and 7 more variables: statistic <dbl>, conf.low <dbl>,
#> #   conf.high <dbl>, framework <chr>, data_used <list>, cutoff <dbl>,
#> #   name_cutoff <chr>
…
