…
                  size for the ANOVA corresponds to only 'cs1' and 'cs2', and the 'cs3' is not taken into account.
      You have selected 3 CSs. At the moment the package does not support
                  the meta-analytic effect size for more than 2 stimuli. The reported meta-analytic effect
                  size for the ANOVA corresponds to only 'cs1' and 'cs2', and the 'cs3' is not taken into account.
      You have selected 3 CSs. At the moment the package does not support
                  the meta-analytic effect size for more than 2 stimuli. The reported meta-analytic effect
                  size for the ANOVA corresponds to only 'cs1' and 'cs2', and the 'cs3' is not taken into account.
      You have selected 3 CSs. At the moment the package does not support
                  the meta-analytic effect size for more than 2 stimuli. The reported meta-analytic effect
                  size for the ANOVA corresponds to only 'cs1' and 'cs2', and the 'cs3' is not taken into account.
      You have selected 3 CSs. At the moment the package does not support
                  the meta-analytic effect size for more than 2 stimuli. The reported meta-analytic effect
                  size for the ANOVA corresponds to only 'cs1' and 'cs2', and the 'cs3' is not taken into account.
    Output
      # A tibble: 34 x 18
         x     y     exclusion cut_off model controls method p.value effect.size
         <chr> <chr> <chr>     <chr>   <chr> <lgl>    <chr>    <dbl>       <dbl>
       1 cs    scr   full_data full d~ t-te~ NA       t-tes~ 1.24e-7      0.455 
       2 cs    scr   full_data full d~ t-te~ NA       t-tes~ 2.47e-7      0.455 
       3 cs:t~ scr   full_data full d~ rep ~ NA       rep A~ 3.70e-9      0.0354
       4 cs    scr   full_data full d~ rep ~ NA       rep A~ 2.47e-7      0.0847
       5 cs    scr   ten_per   full d~ t-te~ NA       t-tes~ 6.49e-3      0.235 
       6 cs    scr   ten_per   full d~ t-te~ NA       t-tes~ 1.30e-2      0.235 
       7 cs:t~ scr   ten_per   full d~ rep ~ NA       rep A~ 6.96e-6      0.0811
       8 cs    scr   ten_per   full d~ rep ~ NA       rep A~ 1.30e-2      0.0121
       9 cs    scr   min_first full d~ t-te~ NA       t-tes~ 1.48e-7      0.554 
      10 cs    scr   min_first full d~ t-te~ NA       t-tes~ 2.97e-7      0.554 
      # ... with 24 more rows, and 9 more variables: effect.size.ma <dbl>,
      #   effect.size.ma.lci <dbl>, effect.size.ma.hci <dbl>, estimate <dbl>,
      #   statistic <dbl>, conf.low <dbl>, conf.high <dbl>, framework <chr>,
      #   data_used <list>
…
                  size for the ANOVA corresponds to only 'cs1' and 'cs2', and the 'cs3' is not taken into account.
      You have selected 3 CSs. At the moment the package does not support
                  the meta-analytic effect size for more than 2 stimuli. The reported meta-analytic effect
                  size for the ANOVA corresponds to only 'cs1' and 'cs2', and the 'cs3' is not taken into account.
      You have selected 3 CSs. At the moment the package does not support
                  the meta-analytic effect size for more than 2 stimuli. The reported meta-analytic effect
                  size for the ANOVA corresponds to only 'cs1' and 'cs2', and the 'cs3' is not taken into account.
      You have selected 3 CSs. At the moment the package does not support
                  the meta-analytic effect size for more than 2 stimuli. The reported meta-analytic effect
                  size for the ANOVA corresponds to only 'cs1' and 'cs2', and the 'cs3' is not taken into account.
      You have selected 3 CSs. At the moment the package does not support
                  the meta-analytic effect size for more than 2 stimuli. The reported meta-analytic effect
                  size for the ANOVA corresponds to only 'cs1' and 'cs2', and the 'cs3' is not taken into account.
    Output
      # A tibble: 34 x 18
         x     y     exclusion cut_off model controls method p.value effect.size
         <chr> <chr> <chr>     <chr>   <chr> <lgl>    <chr>    <dbl>       <dbl>
       1 cs    scr   full_data full d~ t-te~ NA       t-tes~ 3.77e-3     0.455  
       2 cs    scr   full_data full d~ t-te~ NA       t-tes~ 7.53e-3     0.455  
       3 grou~ scr   full_data full d~ rep ~ NA       rep A~ 2.05e-1     0.00227
       4 grou~ scr   full_data full d~ rep ~ NA       rep A~ 7.52e-1    -0.00230
       5 cs    scr   ten_per   full d~ t-te~ NA       t-tes~ 1.44e-1     0.235  
       6 cs    scr   ten_per   full d~ t-te~ NA       t-tes~ 2.87e-1     0.235  
       7 grou~ scr   ten_per   full d~ rep ~ NA       rep A~ 7.71e-1    -0.00322
       8 grou~ scr   ten_per   full d~ rep ~ NA       rep A~ 7.32e-1    -0.00192
       9 cs    scr   min_first full d~ t-te~ NA       t-tes~ 8.43e-4     0.554  
      10 cs    scr   min_first full d~ t-te~ NA       t-tes~ 1.69e-3     0.554  
      # ... with 24 more rows, and 9 more variables: effect.size.ma <dbl>,
      #   effect.size.ma.lci <dbl>, effect.size.ma.hci <dbl>, estimate <dbl>,
      #   statistic <dbl>, conf.low <dbl>, conf.high <dbl>, framework <chr>,
      #   data_used <list>
